,Bad,Fib,Name,VREL,VERR,RA,Dec,Mag,ccd,wavelength_start
44,,221,AGBSYAZ005536,27.5668,0.034,0.22379993,-0.4608952,14.1,1,4750
1478,,221,AGBSYAZ005536,26.1079,0.034,0.22379993,-0.4608952,14.1,3,6620
134,,221,AGBSYAZ005536,27.5667,0.035,0.22379993,-0.4608952,14.1,1,4760
313,,221,AGBSYAZ005536,26.3934,0.042,0.22379993,-0.4608952,14.1,1,4800
224,,221,AGBSYAZ005536,26.8477,0.046,0.22379993,-0.4608952,14.1,1,4790
1535,,79,AGBSYAZ016610,-34.4672,0.074,0.23086342,-0.4645895,14,3,6630
1267,,79,AGBSYAZ016610,-34.5472,0.078,0.23086342,-0.4645895,14,3,6600
460,,79,AGBSYAZ016610,-32.8599,0.08,0.23086342,-0.4645895,14,2,5700
280,,79,AGBSYAZ016610,-33.9481,0.082,0.23086342,-0.4645895,14,1,4800
370,,79,AGBSYAZ016610,-35.1441,0.083,0.23086342,-0.4645895,14,1,4810
380,,113,AGBSYAZ017762,-31.3563,0.058,0.23052017,-0.4644216,14.1,1,4810
1277,,113,AGBSYAZ017762,-31.4543,0.063,0.23052017,-0.4644216,14.1,3,6600
290,,113,AGBSYAZ017762,-30.5489,0.066,0.23052017,-0.4644216,14.1,1,4800
470,,113,AGBSYAZ017762,-29.8039,0.072,0.23052017,-0.4644216,14.1,2,5700
1188,,113,AGBSYAZ017762,-31.5257,0.077,0.23052017,-0.4644216,14.1,3,6580
466,,95,AGBSYAZ018498,-28.0497,0.05,0.23001766,-0.4643258,13.7,2,5700
286,,95,AGBSYAZ018498,-29.2221,0.067,0.23001766,-0.4643258,13.7,1,4800
376,,95,AGBSYAZ018498,-29.9614,0.071,0.23001766,-0.4643258,13.7,1,4810
1273,,95,AGBSYAZ018498,-29.0999,0.076,0.23001766,-0.4643258,13.7,3,6600
735,1,95,AGBSYAZ018498,-27.9951,0.085,0.23001766,-0.4643258,13.7,2,5740
489,,210,AGBSYAZ020268,-26.7964,0.06,0.23012747,-0.4641148,14.1,2,5700
1207,,210,AGBSYAZ020268,-27.9218,0.081,0.23012747,-0.4641148,14.1,3,6580
1296,,210,AGBSYAZ020268,-26.919,0.087,0.23012747,-0.4641148,14.1,3,6600
309,,210,AGBSYAZ020268,-27.8364,0.089,0.23012747,-0.4641148,14.1,1,4800
758,1,210,AGBSYAZ020268,-25.7671,0.097,0.23012747,-0.4641148,14.1,2,5740
468,,103,AGBSYAZ020908,-27.4334,0.048,0.23035582,-0.4640369,14.1,2,5700
288,,103,AGBSYAZ020908,-28.2937,0.054,0.23035582,-0.4640369,14.1,1,4800
1186,,103,AGBSYAZ020908,-29.1849,0.058,0.23035582,-0.4640369,14.1,3,6580
199,,103,AGBSYAZ020908,-27.4848,0.061,0.23035582,-0.4640369,14.1,1,4790
378,,103,AGBSYAZ020908,-29.035,0.062,0.23035582,-0.4640369,14.1,1,4810
451,,13,AGBSYAZ024409,-28.3734,0.098,0.23074707,-0.4636263,14.6,2,5700
1169,,13,AGBSYAZ024409,-29.7325,0.111,0.23074707,-0.4636263,14.6,3,6580
361,,13,AGBSYAZ024409,-30.6034,0.115,0.23074707,-0.4636263,14.6,1,4810
92,1,13,AGBSYAZ024409,-29.1231,0.135,0.23074707,-0.4636263,14.6,1,4760
271,,13,AGBSYAZ024409,-29.5231,0.138,0.23074707,-0.4636263,14.6,1,4800
496,,225,AGBSYAZ024529,-30.381,0.073,0.22957551,-0.4636111,14.3,2,5700
316,,225,AGBSYAZ024529,-31.1257,0.084,0.22957551,-0.4636111,14.3,1,4800
406,,225,AGBSYAZ024529,-32.098,0.084,0.22957551,-0.4636111,14.3,1,4810
1214,,225,AGBSYAZ024529,-31.643,0.087,0.22957551,-0.4636111,14.3,3,6580
137,,225,AGBSYAZ024529,-30.0741,0.091,0.22957551,-0.4636111,14.3,1,4760
500,,249,AGBSYAZ024850,-28.1407,0.06,0.22987513,-0.4635681,13.9,2,5700
410,,249,AGBSYAZ024850,-30.572,0.072,0.22987513,-0.4635681,13.9,1,4810
1307,,249,AGBSYAZ024850,-29.8978,0.074,0.22987513,-0.4635681,13.9,3,6600
320,,249,AGBSYAZ024850,-29.836,0.082,0.22987513,-0.4635681,13.9,1,4800
1218,,249,AGBSYAZ024850,-30.1557,0.085,0.22987513,-0.4635681,13.9,3,6580
525,,338,AGBSYAZ025094,-27.7475,0.071,0.23018493,-0.4635292,14.3,2,5700
435,,338,AGBSYAZ025094,-30.4488,0.107,0.23018493,-0.4635292,14.3,1,4810
345,,338,AGBSYAZ025094,-29.4628,0.112,0.23018493,-0.4635292,14.3,1,4800
255,1,338,AGBSYAZ025094,-28.6555,0.137,0.23018493,-0.4635292,14.3,1,4790
1242,,338,AGBSYAZ025094,-29.5411,0.141,0.23018493,-0.4635292,14.3,3,6580
526,,339,AGBSYAZ028230,-24.8813,0.096,0.22969042,-0.4628993,14.5,2,5700
346,,339,AGBSYAZ028230,-26.5131,0.108,0.22969042,-0.4628993,14.5,1,4800
167,,339,AGBSYAZ028230,-26.3754,0.109,0.22969042,-0.4628993,14.5,1,4760
1243,,339,AGBSYAZ028230,-27.7335,0.11,0.22969042,-0.4628993,14.5,3,6580
795,1,339,AGBSYAZ028230,-25.5078,0.118,0.22969042,-0.4628993,14.5,2,5740
515,,313,AGBSYAZ029428,-27.1756,0.099,0.23068525,-0.462442,14.5,2,5700
335,,313,AGBSYAZ029428,-29.6203,0.11,0.23068525,-0.462442,14.5,1,4800
425,,313,AGBSYAZ029428,-30.5692,0.111,0.23068525,-0.462442,14.5,1,4810
246,1,313,AGBSYAZ029428,-29.2272,0.131,0.23068525,-0.462442,14.5,1,4790
156,,313,AGBSYAZ029428,-28.6659,0.148,0.23068525,-0.462442,14.5,1,4760
452,,31,AGBSYAZ030871,13.8089,0.051,0.23394538,-0.4664116,14.6,2,5700
542,,31,AGBSYAZ030871,13.7663,0.056,0.23394538,-0.4664116,14.6,2,5710
1170,,31,AGBSYAZ030871,11.8832,0.056,0.23394538,-0.4664116,14.6,3,6580
183,,31,AGBSYAZ030871,14.0441,0.057,0.23394538,-0.4664116,14.6,1,4790
721,1,31,AGBSYAZ030871,13.985,0.06,0.23394538,-0.4664116,14.6,2,5740
1250,,393,AGBSYAZ032013,26.6464,0.069,0.23283564,-0.4638422,13.8,3,6580
533,,393,AGBSYAZ032013,28.0448,0.07,0.23283564,-0.4638422,13.8,2,5700
802,1,393,AGBSYAZ032013,28.0834,0.078,0.23283564,-0.4638422,13.8,2,5740
1608,,393,AGBSYAZ032013,26.4233,0.078,0.23283564,-0.4638422,13.8,3,6630
84,1,393,AGBSYAZ032013,28.3325,0.081,0.23283564,-0.4638422,13.8,1,4750
342,,328,BAGBYAZ002679,35.1356,0.045,0.22995658,-0.4597854,14.3,1,4800
253,,328,BAGBYAZ002679,35.4657,0.048,0.22995658,-0.4597854,14.3,1,4790
163,1,328,BAGBYAZ002679,35.6152,0.05,0.22995658,-0.4597854,14.3,1,4760
1507,1,328,BAGBYAZ002679,33.9024,0.055,0.22995658,-0.4597854,14.3,3,6620
432,,328,BAGBYAZ002679,34.0698,0.056,0.22995658,-0.4597854,14.3,1,4810
422,,309,BAGBYAZ003778,1.1035,0.059,0.22780691,-0.460643,14.7,1,4810
512,,309,BAGBYAZ003778,2.7959,0.069,0.22780691,-0.460643,14.7,2,5700
332,,309,BAGBYAZ003778,1.1591,0.076,0.22780691,-0.460643,14.7,1,4800
961,1,309,BAGBYAZ003778,1.2127,0.085,0.22780691,-0.460643,14.7,2,5770
602,,309,BAGBYAZ003778,3.2319,0.092,0.22780691,-0.460643,14.7,2,5710
417,,275,BAGBYAZ004812,81.7251,0.057,0.22819089,-0.4578834,14.6,1,4810
507,,275,BAGBYAZ004812,82.8145,0.067,0.22819089,-0.4578834,14.6,2,5700
776,1,275,BAGBYAZ004812,83.153,0.07,0.22819089,-0.4578834,14.6,2,5740
956,1,275,BAGBYAZ004812,82.3522,0.071,0.22819089,-0.4578834,14.6,2,5770
58,1,275,BAGBYAZ004812,83.0332,0.072,0.22819089,-0.4578834,14.6,1,4750
501,,252,BAGBYAZ005721,-19.7698,0.111,0.22602668,-0.4598262,14.2,2,5700
321,1,252,BAGBYAZ005721,-18.3429,0.155,0.22602668,-0.4598262,14.2,1,4800
770,1,252,BAGBYAZ005721,-18.7288,0.167,0.22602668,-0.4598262,14.2,2,5740
1219,1,252,BAGBYAZ005721,-20.5183,0.204,0.22602668,-0.4598262,14.2,3,6580
411,,252,BAGBYAZ005721,-20.212,0.212,0.22602668,-0.4598262,14.2,1,4810
401,,217,BAGBYAZ007913,11.2538,0.055,0.22669281,-0.4656058,14.7,1,4810
311,,217,BAGBYAZ007913,12.2753,0.058,0.22669281,-0.4656058,14.7,1,4800
491,,217,BAGBYAZ007913,12.8367,0.064,0.22669281,-0.4656058,14.7,2,5700
581,,217,BAGBYAZ007913,12.7881,0.069,0.22669281,-0.4656058,14.7,2,5710
42,1,217,BAGBYAZ007913,12.5256,0.071,0.22669281,-0.4656058,14.7,1,4750
1205,1,202,BAGBYAZ009411,37.3732,0.059,0.2275233,-0.4630592,14.8,3,6580
307,,202,BAGBYAZ009411,37.7212,0.07,0.2275233,-0.4630592,14.8,1,4800
397,,202,BAGBYAZ009411,36.9139,0.07,0.2275233,-0.4630592,14.8,1,4810
487,,202,BAGBYAZ009411,38.6383,0.07,0.2275233,-0.4630592,14.8,2,5700
756,1,202,BAGBYAZ009411,39.1311,0.08,0.2275233,-0.4630592,14.8,2,5740
1192,1,135,BAGBYAZ014218,-27.7563,0.088,0.229169,-0.4651343,14.6,3,6580
474,1,135,BAGBYAZ014218,-27.6141,0.1,0.229169,-0.4651343,14.6,2,5700
384,,135,BAGBYAZ014218,-28.0673,0.108,0.229169,-0.4651343,14.6,1,4810
294,,135,BAGBYAZ014218,-27.8601,0.131,0.229169,-0.4651343,14.6,1,4800
115,1,135,BAGBYAZ014218,-26.328,0.148,0.229169,-0.4651343,14.6,1,4760
385,,138,BAGBYAZ014802,-8.0972,0.035,0.22953552,-0.4649638,14.5,1,4810
1193,1,138,BAGBYAZ014802,-8.7281,0.036,0.22953552,-0.4649638,14.5,3,6580
295,,138,BAGBYAZ014802,-7.6127,0.039,0.22953552,-0.4649638,14.5,1,4800
834,1,138,BAGBYAZ014802,-8.316,0.048,0.22953552,-0.4649638,14.5,2,5760
206,,138,BAGBYAZ014802,-6.9993,0.05,0.22953552,-0.4649638,14.5,1,4790
404,,223,BAGBYAZ027546,46.9688,0.062,0.22968605,-0.4630918,14.2,1,4810
45,1,223,BAGBYAZ027546,47.928,0.067,0.22968605,-0.4630918,14.2,1,4750
135,1,223,BAGBYAZ027546,48.0097,0.074,0.22968605,-0.4630918,14.2,1,4760
314,,223,BAGBYAZ027546,47.3048,0.075,0.22968605,-0.4630918,14.2,1,4800
494,1,223,BAGBYAZ027546,47.3238,0.077,0.22968605,-0.4630918,14.2,2,5700
457,,71,BAGBYAZ031029,39.0461,0.068,0.23341597,-0.466,14.4,2,5700
98,1,71,BAGBYAZ031029,39.5957,0.08,0.23341597,-0.466,14.4,1,4760
726,1,71,BAGBYAZ031029,39.3527,0.098,0.23341597,-0.466,14.4,2,5740
8,,71,BAGBYAZ031029,39.5488,0.102,0.23341597,-0.466,14.4,1,4750
1175,1,71,BAGBYAZ031029,37.3414,0.103,0.23341597,-0.466,14.4,3,6580
354,,394,BAGBYAZ031344,44.9808,0.072,0.23202625,-0.4650911,14.2,1,4800
444,,394,BAGBYAZ031344,44.148,0.075,0.23202625,-0.4650911,14.2,1,4810
534,,394,BAGBYAZ031344,45.2681,0.092,0.23202625,-0.4650911,14.2,2,5700
85,1,394,BAGBYAZ031344,45.2718,0.098,0.23202625,-0.4650911,14.2,1,4750
893,1,394,BAGBYAZ031344,44.896,0.114,0.23202625,-0.4650911,14.2,2,5760
245,,312,BBLUYAZ002217,47.4976,0.034,0.23033982,-0.4616099,12.8,1,4790
334,,312,BBLUYAZ002217,46.7927,0.053,0.23033982,-0.4616099,12.8,1,4800
1321,,312,BBLUYAZ002217,46.5072,0.056,0.23033982,-0.4616099,12.8,3,6600
783,1,312,BBLUYAZ002217,47.4327,0.057,0.23033982,-0.4616099,12.8,2,5740
1232,1,312,BBLUYAZ002217,45.1127,0.057,0.23033982,-0.4616099,12.8,3,6580
1577,,262,BBLUYAZ002445,1.8129,0.048,0.22924681,-0.4609134,13.1,3,6630
1487,,262,BBLUYAZ002445,1.7541,0.051,0.22924681,-0.4609134,13.1,3,6620
1309,,262,BBLUYAZ002445,2.3756,0.055,0.22924681,-0.4609134,13.1,3,6600
233,,262,BBLUYAZ002445,3.8829,0.061,0.22924681,-0.4609134,13.1,1,4790
502,,262,BBLUYAZ002445,3.8613,0.061,0.22924681,-0.4609134,13.1,2,5700
508,,283,BBLUYAZ002999,13.2032,0.046,0.22904755,-0.45808,11.9,2,5700
328,,283,BBLUYAZ002999,12.8528,0.05,0.22904755,-0.45808,11.9,1,4800
418,,283,BBLUYAZ002999,12.1764,0.051,0.22904755,-0.45808,11.9,1,4810
239,,283,BBLUYAZ002999,13.5157,0.053,0.22904755,-0.45808,11.9,1,4790
777,1,283,BBLUYAZ002999,13.3481,0.053,0.22904755,-0.45808,11.9,2,5740
409,,245,BBLUYAZ003748,-2.6276,0.03,0.22615031,-0.4607089,12.5,1,4810
319,,245,BBLUYAZ003748,-1.9679,0.037,0.22615031,-0.4607089,12.5,1,4800
948,1,245,BBLUYAZ003748,-2.0303,0.04,0.22615031,-0.4607089,12.5,2,5770
140,1,245,BBLUYAZ003748,-0.8287,0.042,0.22615031,-0.4607089,12.5,1,4760
1217,,245,BBLUYAZ003748,-2.1228,0.042,0.22615031,-0.4607089,12.5,3,6580
217,,200,BBLUYAZ006797,45.4147,0.041,0.22350759,-0.4651544,13.3,1,4790
1204,,200,BBLUYAZ006797,43.7515,0.047,0.22350759,-0.4651544,13.3,3,6580
1561,1,200,BBLUYAZ006797,43.781,0.047,0.22350759,-0.4651544,13.3,3,6630
755,1,200,BBLUYAZ006797,45.6393,0.049,0.22350759,-0.4651544,13.3,2,5740
486,,200,BBLUYAZ006797,45.2246,0.051,0.22350759,-0.4651544,13.3,2,5700
485,,198,BBLUYAZ008876,13.4508,0.043,0.2283007,-0.4638683,12.4,2,5700
305,,198,BBLUYAZ008876,13.2807,0.054,0.2283007,-0.4638683,12.4,1,4800
1203,,198,BBLUYAZ008876,12.1961,0.057,0.2283007,-0.4638683,12.4,3,6580
216,,198,BBLUYAZ008876,13.6465,0.058,0.2283007,-0.4638683,12.4,1,4790
395,,198,BBLUYAZ008876,12.6583,0.058,0.2283007,-0.4638683,12.4,1,4810
229,,237,BBLUYAZ009540,4.4766,0.052,0.22815307,-0.4628036,11.5,1,4790
1573,,237,BBLUYAZ009540,3.3576,0.058,0.22815307,-0.4628036,11.5,3,6630
318,,237,BBLUYAZ009540,3.9121,0.061,0.22815307,-0.4628036,11.5,1,4800
498,,237,BBLUYAZ009540,4.808,0.065,0.22815307,-0.4628036,11.5,2,5700
857,1,237,BBLUYAZ009540,5.1653,0.067,0.22815307,-0.4628036,11.5,2,5760
1213,,224,BBLUYAZ009677,3.0259,0.06,0.22723605,-0.4625078,13.6,3,6580
136,1,224,BBLUYAZ009677,4.1727,0.07,0.22723605,-0.4625078,13.6,1,4760
405,,224,BBLUYAZ009677,1.8035,0.07,0.22723605,-0.4625078,13.6,1,4810
495,,224,BBLUYAZ009677,3.7742,0.07,0.22723605,-0.4625078,13.6,2,5700
764,1,224,BBLUYAZ009677,4.4156,0.077,0.22723605,-0.4625078,13.6,2,5740
340,,324,BBLUYAZ009728,52.6257,0.041,0.22887593,-0.462369,13.4,1,4800
251,,324,BBLUYAZ009728,52.8177,0.042,0.22887593,-0.462369,13.4,1,4790
71,1,324,BBLUYAZ009728,52.9209,0.052,0.22887593,-0.462369,13.4,1,4750
430,,324,BBLUYAZ009728,51.8816,0.053,0.22887593,-0.462369,13.4,1,4810
161,1,324,BBLUYAZ009728,53.2018,0.055,0.22887593,-0.462369,13.4,1,4760
274,,59,BBLUYAZ031174,31.898,0.039,0.23238477,-0.4655881,11.5,1,4800
364,,59,BBLUYAZ031174,31.1509,0.042,0.23238477,-0.4655881,11.5,1,4810
185,,59,BBLUYAZ031174,32.4822,0.044,0.23238477,-0.4655881,11.5,1,4790
95,1,59,BBLUYAZ031174,32.8113,0.045,0.23238477,-0.4655881,11.5,1,4760
723,1,59,BBLUYAZ031174,32.2928,0.046,0.23238477,-0.4655881,11.5,2,5740
190,,77,BBLUYAZ031296,36.5688,0.034,0.23204297,-0.4652244,12.6,1,4790
279,,77,BBLUYAZ031296,36.1451,0.034,0.23204297,-0.4652244,12.6,1,4800
369,,77,BBLUYAZ031296,35.4243,0.048,0.23204297,-0.4652244,12.6,1,4810
100,1,77,BBLUYAZ031296,37.3021,0.049,0.23204297,-0.4652244,12.6,1,4760
549,,77,BBLUYAZ031296,36.4927,0.054,0.23204297,-0.4652244,12.6,2,5710
81,1,372,BBLUYAZ031429,28.8811,0.054,0.23280437,-0.464881,12.6,1,4750
440,,372,BBLUYAZ031429,27.5558,0.056,0.23280437,-0.464881,12.6,1,4810
350,,372,BBLUYAZ031429,28.15,0.065,0.23280437,-0.464881,12.6,1,4800
171,1,372,BBLUYAZ031429,29.5479,0.074,0.23280437,-0.464881,12.6,1,4760
709,1,372,BBLUYAZ031429,30.3922,0.078,0.23280437,-0.464881,12.6,2,5730
259,,349,BBLUYAZ032000,61.1392,0.045,0.23245313,-0.4638691,12.3,1,4790
349,,349,BBLUYAZ032000,60.2365,0.053,0.23245313,-0.4638691,12.3,1,4800
80,1,349,BBLUYAZ032000,60.7774,0.06,0.23245313,-0.4638691,12.3,1,4750
1514,1,349,BBLUYAZ032000,59.7294,0.063,0.23245313,-0.4638691,12.3,3,6620
529,,349,BBLUYAZ032000,60.6924,0.065,0.23245313,-0.4638691,12.3,2,5700
347,,345,BBLUYAZ032280,17.0578,0.036,0.23265457,-0.4633264,10.2,1,4800
257,,345,BBLUYAZ032280,17.6867,0.037,0.23265457,-0.4633264,10.2,1,4790
1334,,345,BBLUYAZ032280,16.7651,0.041,0.23265457,-0.4633264,10.2,3,6600
168,1,345,BBLUYAZ032280,18.4528,0.042,0.23265457,-0.4633264,10.2,1,4760
976,1,345,BBLUYAZ032280,17.3194,0.044,0.23265457,-0.4633264,10.2,2,5770
173,1,383,BBLUYAZ032440,14.1144,0.036,0.23415991,-0.462958,13.4,1,4760
352,,383,BBLUYAZ032440,13.5588,0.036,0.23415991,-0.462958,13.4,1,4800
801,1,383,BBLUYAZ032440,14.0544,0.038,0.23415991,-0.462958,13.4,2,5740
1249,,383,BBLUYAZ032440,11.9917,0.042,0.23415991,-0.462958,13.4,3,6580
83,1,383,BBLUYAZ032440,14.0451,0.047,0.23415991,-0.462958,13.4,1,4750
446,,396,BBLUYAZ032687,36.1766,0.061,0.23415119,-0.4622026,12.8,1,4810
536,,396,BBLUYAZ032687,37.2526,0.076,0.23415119,-0.4622026,12.8,2,5700
356,,396,BBLUYAZ032687,36.9468,0.083,0.23415119,-0.4622026,12.8,1,4800
266,,396,BBLUYAZ032687,37.7365,0.09,0.23415119,-0.4622026,12.8,1,4790
177,1,396,BBLUYAZ032687,38.4485,0.103,0.23415119,-0.4622026,12.8,1,4760
946,1,226,BGBSYAZ009280,-31.7296,0.061,0.22845778,-0.4632969,13.4,2,5770
497,,226,BGBSYAZ009280,-30.7437,0.067,0.22845778,-0.4632969,13.4,2,5700
856,1,226,BGBSYAZ009280,-31.0047,0.07,0.22845778,-0.4632969,13.4,2,5760
766,1,226,BGBSYAZ009280,-30.7103,0.073,0.22845778,-0.4632969,13.4,2,5740
317,,226,BGBSYAZ009280,-32.0443,0.085,0.22845778,-0.4632969,13.4,1,4800
467,,99,BGBSYAZ012027,-28.2177,0.045,0.23049763,-0.4660547,13.8,2,5700
826,1,99,BGBSYAZ012027,-28.5931,0.059,0.23049763,-0.4660547,13.8,2,5760
916,1,99,BGBSYAZ012027,-29.3013,0.059,0.23049763,-0.4660547,13.8,2,5770
736,1,99,BGBSYAZ012027,-28.2219,0.074,0.23049763,-0.4660547,13.8,2,5740
287,,99,BGBSYAZ012027,-29.3894,0.076,0.23049763,-0.4660547,13.8,1,4800
980,1,381,BGBSYAZ018774,-22.6581,0.087,0.2313383,-0.4642918,12.9,2,5770
890,1,381,BGBSYAZ018774,-21.4042,0.093,0.2313383,-0.4642918,12.9,2,5760
531,,381,BGBSYAZ018774,-21.8093,0.11,0.2313383,-0.4642918,12.9,2,5700
1516,,381,BGBSYAZ018774,-22.7382,0.12,0.2313383,-0.4642918,12.9,3,6620
1248,,381,BGBSYAZ018774,-22.5031,0.122,0.2313383,-0.4642918,12.9,3,6580
546,1,63,BHBSYAZ014452,316.0827,0.092,0.2308147,-0.4650614,15.4,2,5710
636,1,63,BHBSYAZ014452,-876.7416,0.151,0.2308147,-0.4650614,15.4,2,5730
456,1,63,BHBSYAZ014452,237.5236,0.258,0.2308147,-0.4650614,15.4,2,5700
1263,1,63,BHBSYAZ014452,-82.2564,0.263,0.2308147,-0.4650614,15.4,3,6600
1441,1,63,BHBSYAZ014452,172.3638,0.273,0.2308147,-0.4650614,15.4,3,6620
1280,1,130,BHBSYAZ015315,322.7167,0.204,0.2306118,-0.4648325,15.4,3,6600
293,1,130,BHBSYAZ015315,-74.1383,0.268,0.2306118,-0.4648325,15.4,1,4800
1548,1,130,BHBSYAZ015315,291.4319,0.277,0.2306118,-0.4648325,15.4,3,6630
742,1,130,BHBSYAZ015315,-186.3969,0.281,0.2306118,-0.4648325,15.4,2,5740
204,1,130,BHBSYAZ015315,-74.8113,0.33,0.2306118,-0.4648325,15.4,1,4790
659,1,168,BHBSYAZ017595,-387.5987,0.214,0.22915882,-0.4644439,15.5,2,5730
1464,1,168,BHBSYAZ017595,-68.8399,0.227,0.22915882,-0.4644439,15.5,3,6620
569,1,168,BHBSYAZ017595,132.0258,0.239,0.22915882,-0.4644439,15.5,2,5710
120,1,168,BHBSYAZ017595,641.1505,0.29,0.22915882,-0.4644439,15.5,1,4760
1286,1,168,BHBSYAZ017595,931.064,0.314,0.22915882,-0.4644439,15.5,3,6600
566,1,152,BHBSYAZ017699,338.3708,0.193,0.22960824,-0.46443,15.3,2,5710
27,1,152,BHBSYAZ017699,-248.3684,0.22,0.22960824,-0.46443,15.3,1,4750
745,1,152,BHBSYAZ017699,-230.2526,0.233,0.22960824,-0.46443,15.3,2,5740
656,1,152,BHBSYAZ017699,-754.6858,0.241,0.22960824,-0.46443,15.3,2,5730
207,1,152,BHBSYAZ017699,-31.5898,0.264,0.22960824,-0.46443,15.3,1,4790
1466,1,173,BHBSYAZ019581,-68.3434,0.184,0.22922499,-0.4641928,15.5,3,6620
661,1,173,BHBSYAZ019581,-19.0293,0.219,0.22922499,-0.4641928,15.5,2,5730
750,1,173,BHBSYAZ019581,414.8149,0.221,0.22922499,-0.4641928,15.5,2,5740
301,1,173,BHBSYAZ019581,-333.9727,0.259,0.22922499,-0.4641928,15.5,1,4800
571,1,173,BHBSYAZ019581,248.7381,0.268,0.22922499,-0.4641928,15.5,2,5710
907,1,76,BHBSYAZ022830,-207.7757,0.225,0.23071216,-0.4638207,15.5,2,5770
1355,1,76,BHBSYAZ022830,-602.1389,0.287,0.23071216,-0.4638207,15.5,3,6610
1265,1,76,BHBSYAZ022830,392.8762,0.293,0.23071216,-0.4638207,15.5,3,6600
189,1,76,BHBSYAZ022830,-278.8715,0.356,0.23071216,-0.4638207,15.5,1,4790
727,1,76,BHBSYAZ022830,220.5539,0.371,0.23071216,-0.4638207,15.5,2,5740
308,1,208,BHBSYAZ023018,-79.129,0.283,0.22947225,-0.4637965,15.4,1,4800
1295,1,208,BHBSYAZ023018,366.7192,0.338,0.22947225,-0.4637965,15.4,3,6600
398,1,208,BHBSYAZ023018,-204.7595,0.386,0.22947225,-0.4637965,15.4,1,4810
488,1,208,BHBSYAZ023018,778.5093,0.431,0.22947225,-0.4637965,15.4,2,5700
757,1,208,BHBSYAZ023018,-33.2671,0.491,0.22947225,-0.4637965,15.4,2,5740
702,1,330,BHBSYAZ026863,54.26,0.216,0.22982059,-0.4632375,15.4,2,5730
613,1,330,BHBSYAZ026863,105.103,0.235,0.22982059,-0.4632375,15.4,2,5710
1598,1,330,BHBSYAZ026863,252.5018,0.256,0.22982059,-0.4632375,15.4,3,6630
1330,1,330,BHBSYAZ026863,612.94,0.262,0.22982059,-0.4632375,15.4,3,6600
433,1,330,BHBSYAZ026863,8.5187,0.296,0.22982059,-0.4632375,15.4,1,4810
505,,272,RGBSYAZ003702,-21.8426,0.043,0.22857268,-0.4607736,15,2,5700
325,,272,RGBSYAZ003702,-22.287,0.055,0.22857268,-0.4607736,15,1,4800
954,1,272,RGBSYAZ003702,-22.0579,0.056,0.22857268,-0.4607736,15,2,5770
1223,1,272,RGBSYAZ003702,-23.767,0.058,0.22857268,-0.4607736,15,3,6580
774,1,272,RGBSYAZ003702,-21.5914,0.061,0.22857268,-0.4607736,15,2,5740
503,1,263,RGBSYAZ005719,35.747,0.13,0.22541509,-0.4598391,15.5,2,5700
772,1,263,RGBSYAZ005719,37.0082,0.131,0.22541509,-0.4598391,15.5,2,5740
593,1,263,RGBSYAZ005719,36.7645,0.138,0.22541509,-0.4598391,15.5,2,5710
1221,1,263,RGBSYAZ005719,34.6429,0.139,0.22541509,-0.4598391,15.5,3,6580
682,1,263,RGBSYAZ005719,36.8171,0.186,0.22541509,-0.4598391,15.5,2,5730
28,,165,RGBSYAZ007869,-27.7597,0.077,0.22801926,-0.465731,15,1,4750
387,,165,RGBSYAZ007869,-29.6188,0.08,0.22801926,-0.465731,15,1,4810
118,1,165,RGBSYAZ007869,-27.9323,0.083,0.22801926,-0.465731,15,1,4760
746,1,165,RGBSYAZ007869,-27.9186,0.087,0.22801926,-0.465731,15,2,5740
1195,,165,RGBSYAZ007869,-30.4125,0.088,0.22801926,-0.465731,15,3,6580
483,,177,RGBSYAZ007999,-29.1966,0.084,0.22874576,-0.4653606,15.4,2,5700
1201,,177,RGBSYAZ007999,-31.2101,0.095,0.22874576,-0.4653606,15.4,3,6580
124,1,177,RGBSYAZ007999,-29.5678,0.103,0.22874576,-0.4653606,15.4,1,4760
303,,177,RGBSYAZ007999,-30.4536,0.106,0.22874576,-0.4653606,15.4,1,4800
393,,177,RGBSYAZ007999,-31.7157,0.111,0.22874576,-0.4653606,15.4,1,4810
492,,218,RGBSYAZ009088,-27.6994,0.072,0.22808253,-0.4635916,15.4,2,5700
761,1,218,RGBSYAZ009088,-27.5257,0.094,0.22808253,-0.4635916,15.4,2,5740
402,,218,RGBSYAZ009088,-29.3421,0.1,0.22808253,-0.4635916,15.4,1,4810
43,1,218,RGBSYAZ009088,-28.0869,0.102,0.22808253,-0.4635916,15.4,1,4750
133,,218,RGBSYAZ009088,-28.1989,0.102,0.22808253,-0.4635916,15.4,1,4760
365,1,62,RGBSYAZ012223,25.1481,0.052,0.23062926,-0.465964,15.2,1,4810
455,,62,RGBSYAZ012223,24.8427,0.052,0.23062926,-0.465964,15.2,2,5700
1173,1,62,RGBSYAZ012223,23.6373,0.053,0.23062926,-0.465964,15.2,3,6580
814,1,62,RGBSYAZ012223,25.3321,0.055,0.23062926,-0.465964,15.2,2,5760
186,,62,RGBSYAZ012223,25.4619,0.058,0.23062926,-0.465964,15.2,1,4790
1189,,118,RGBSYAZ013369,-33.4389,0.065,0.23046418,-0.4654564,14.9,3,6580
471,,118,RGBSYAZ013369,-31.2673,0.067,0.23046418,-0.4654564,14.9,2,5700
740,1,118,RGBSYAZ013369,-30.8014,0.068,0.23046418,-0.4654564,14.9,2,5740
830,1,118,RGBSYAZ013369,-31.3312,0.068,0.23046418,-0.4654564,14.9,2,5760
1278,1,118,RGBSYAZ013369,-33.0774,0.08,0.23046418,-0.4654564,14.9,3,6600
469,,104,RGBSYAZ014258,-31.0839,0.071,0.22983222,-0.4651211,15.4,2,5700
1187,,104,RGBSYAZ014258,-32.9386,0.079,0.22983222,-0.4651211,15.4,3,6580
289,,104,RGBSYAZ014258,-32.6811,0.095,0.22983222,-0.4651211,15.4,1,4800
738,1,104,RGBSYAZ014258,-29.9196,0.097,0.22983222,-0.4651211,15.4,2,5740
379,,104,RGBSYAZ014258,-32.8216,0.099,0.22983222,-0.4651211,15.4,1,4810
195,,88,RGBSYAZ015342,-8.3475,0.043,0.23136448,-0.4648259,14.8,1,4790
733,1,88,RGBSYAZ015342,-8.627,0.049,0.23136448,-0.4648259,14.8,2,5740
464,1,88,RGBSYAZ015342,-9.3746,0.05,0.23136448,-0.4648259,14.8,2,5700
1539,,88,RGBSYAZ015342,-10.5387,0.054,0.23136448,-0.4648259,14.8,3,6630
1182,,88,RGBSYAZ015342,-9.9429,0.058,0.23136448,-0.4648259,14.8,3,6580
1196,,167,RGBSYAZ015658,-29.1676,0.061,0.22946716,-0.4647583,14.8,3,6580
478,,167,RGBSYAZ015658,-27.1042,0.066,0.22946716,-0.4647583,14.8,2,5700
119,1,167,RGBSYAZ015658,-27.1406,0.072,0.22946716,-0.4647583,14.8,1,4760
298,1,167,RGBSYAZ015658,-28.1297,0.08,0.22946716,-0.4647583,14.8,1,4800
29,1,167,RGBSYAZ015658,-27.0216,0.083,0.22946716,-0.4647583,14.8,1,4750
462,,82,RGBSYAZ016419,-29.9989,0.1,0.23157755,-0.4646195,15.5,2,5700
1180,,82,RGBSYAZ016419,-33.1959,0.1,0.23157755,-0.4646195,15.5,3,6580
731,1,82,RGBSYAZ016419,-31.5231,0.134,0.23157755,-0.4646195,15.5,2,5740
103,,82,RGBSYAZ016419,-31.717,0.138,0.23157755,-0.4646195,15.5,1,4760
193,,82,RGBSYAZ016419,-31.3097,0.146,0.23157755,-0.4646195,15.5,1,4790
535,,395,RGBSYAZ017382,-25.6196,0.051,0.23131575,-0.4644711,13.9,2,5700
86,1,395,RGBSYAZ017382,-25.23,0.081,0.23131575,-0.4644711,13.9,1,4750
1610,,395,RGBSYAZ017382,-28.5356,0.081,0.23131575,-0.4644711,13.9,3,6630
445,,395,RGBSYAZ017382,-27.5839,0.082,0.23131575,-0.4644711,13.9,1,4810
355,,395,RGBSYAZ017382,-26.8613,0.092,0.23131575,-0.4644711,13.9,1,4800
113,,120,RGBSYAZ017798,-30.5454,0.076,0.22982641,-0.464417,15.3,1,4760
472,,120,RGBSYAZ017798,-30.6829,0.077,0.22982641,-0.464417,15.3,2,5700
292,,120,RGBSYAZ017798,-32.1818,0.082,0.22982641,-0.464417,15.3,1,4800
1190,1,120,RGBSYAZ017798,-32.0132,0.087,0.22982641,-0.464417,15.3,3,6580
23,1,120,RGBSYAZ017798,-30.5463,0.1,0.22982641,-0.464417,15.3,1,4750
528,,347,RGBSYAZ021600,-25.5052,0.048,0.23017983,-0.4639584,13.8,2,5700
1335,,347,RGBSYAZ021600,-27.1766,0.072,0.23017983,-0.4639584,13.8,3,6600
169,1,347,RGBSYAZ021600,-26.0016,0.079,0.23017983,-0.4639584,13.8,1,4760
887,1,347,RGBSYAZ021600,-26.2746,0.079,0.23017983,-0.4639584,13.8,2,5760
1245,,347,RGBSYAZ021600,-27.9785,0.081,0.23017983,-0.4639584,13.8,3,6580
449,,4,RGBSYAZ021904,-28.3026,0.044,0.23103214,-0.4639239,14,2,5700
1167,,4,RGBSYAZ021904,-30.5335,0.06,0.23103214,-0.4639239,14,3,6580
808,1,4,RGBSYAZ021904,-28.5359,0.063,0.23103214,-0.4639239,14,2,5760
359,,4,RGBSYAZ021904,-30.2847,0.064,0.23103214,-0.4639239,14,1,4810
269,,4,RGBSYAZ021904,-29.4905,0.072,0.23103214,-0.4639239,14,1,4800
480,,171,RGBSYAZ023021,-27.5253,0.065,0.23007439,-0.4637965,15.1,2,5700
1198,1,171,RGBSYAZ023021,-30.2995,0.082,0.23007439,-0.4637965,15.1,3,6580
31,,171,RGBSYAZ023021,-27.6906,0.086,0.23007439,-0.4637965,15.1,1,4750
121,1,171,RGBSYAZ023021,-27.7331,0.087,0.23007439,-0.4637965,15.1,1,4760
211,,171,RGBSYAZ023021,-27.6415,0.089,0.23007439,-0.4637965,15.1,1,4790
450,1,11,RGBSYAZ025174,-26.5732,0.096,0.23108159,-0.4635177,15.4,2,5700
360,,11,RGBSYAZ025174,-28.2323,0.101,0.23108159,-0.4635177,15.4,1,4810
719,1,11,RGBSYAZ025174,-27.1181,0.11,0.23108159,-0.4635177,15.4,2,5740
1168,1,11,RGBSYAZ025174,-26.0205,0.14,0.23108159,-0.4635177,15.4,3,6580
270,,11,RGBSYAZ025174,-28.0735,0.153,0.23108159,-0.4635177,15.4,1,4800
524,1,335,RGBSYAZ025607,-26.2298,0.081,0.23094632,-0.4634552,15.4,2,5700
344,,335,RGBSYAZ025607,-26.4815,0.088,0.23094632,-0.4634552,15.4,1,4800
434,,335,RGBSYAZ025607,-26.9123,0.095,0.23094632,-0.4634552,15.4,1,4810
1241,1,335,RGBSYAZ025607,-27.6573,0.097,0.23094632,-0.4634552,15.4,3,6580
793,1,335,RGBSYAZ025607,-26.5026,0.099,0.23094632,-0.4634552,15.4,2,5740
790,,327,RGBSYAZ026969,-26.4336,0.086,0.23070416,-0.4632164,15.4,2,5740
431,,327,RGBSYAZ026969,-27.7647,0.097,0.23070416,-0.4632164,15.4,1,4810
341,,327,RGBSYAZ026969,-26.9839,0.105,0.23070416,-0.4632164,15.4,1,4800
700,1,327,RGBSYAZ026969,-25.938,0.116,0.23070416,-0.4632164,15.4,2,5730
252,,327,RGBSYAZ026969,-25.0239,0.126,0.23070416,-0.4632164,15.4,1,4790
511,,301,RGBSYAZ027701,-29.3198,0.101,0.23027874,-0.463057,15.2,2,5700
1318,,301,RGBSYAZ027701,-29.2948,0.132,0.23027874,-0.463057,15.2,3,6600
331,1,301,RGBSYAZ027701,-32.4277,0.143,0.23027874,-0.463057,15.2,1,4800
1229,,301,RGBSYAZ027701,-31.2094,0.143,0.23027874,-0.463057,15.2,3,6580
62,,301,RGBSYAZ027701,-29.4113,0.154,0.23027874,-0.463057,15.2,1,4750
490,,214,RGBSYAZ028562,-28.4984,0.045,0.22957551,-0.4627964,14.4,2,5700
310,,214,RGBSYAZ028562,-29.3194,0.061,0.22957551,-0.4627964,14.4,1,4800
849,1,214,RGBSYAZ028562,-29.1089,0.063,0.22957551,-0.4627964,14.4,2,5760
939,1,214,RGBSYAZ028562,-29.3184,0.069,0.22957551,-0.4627964,14.4,2,5770
400,,214,RGBSYAZ028562,-30.3489,0.074,0.22957551,-0.4627964,14.4,1,4810
519,,323,RGBSYAZ028604,-30.8762,0.08,0.23114631,-0.4627815,15,2,5700
70,,323,RGBSYAZ028604,-30.3036,0.095,0.23114631,-0.4627815,15,1,4750
1237,,323,RGBSYAZ028604,-33.1928,0.096,0.23114631,-0.4627815,15,3,6580
788,1,323,RGBSYAZ028604,-30.4926,0.1,0.23114631,-0.4627815,15,2,5740
339,,323,RGBSYAZ028604,-32.2223,0.108,0.23114631,-0.4627815,15,1,4800
509,,288,RGBSYAZ030421,-28.856,0.069,0.22984313,-0.4619468,15.1,2,5700
1316,,288,RGBSYAZ030421,-29.9742,0.079,0.22984313,-0.4619468,15.1,3,6600
329,,288,RGBSYAZ030421,-30.2743,0.083,0.22984313,-0.4619468,15.1,1,4800
419,,288,RGBSYAZ030421,-30.826,0.094,0.22984313,-0.4619468,15.1,1,4810
1227,1,288,RGBSYAZ030421,-29.8715,0.1,0.22984313,-0.4619468,15.1,3,6580
94,,52,RGBSYAZ031345,33.9866,0.095,0.23380794,-0.4650861,15.5,1,4760
273,1,52,RGBSYAZ031345,33.1893,0.1,0.23380794,-0.4650861,15.5,1,4800
363,,52,RGBSYAZ031345,32.5875,0.103,0.23380794,-0.4650861,15.5,1,4810
902,1,52,RGBSYAZ031345,33.3493,0.103,0.23380794,-0.4650861,15.5,2,5770
4,1,52,RGBSYAZ031345,33.2861,0.109,0.23380794,-0.4650861,15.5,1,4750
538,,399,RGBSYAZ031599,-28.8424,0.073,0.23220223,-0.4645713,14.6,2,5700
987,,399,RGBSYAZ031599,-29.8605,0.115,0.23220223,-0.4645713,14.6,2,5770
897,,399,RGBSYAZ031599,-28.6236,0.125,0.23220223,-0.4645713,14.6,2,5760
89,1,399,RGBSYAZ031599,-27.358,0.135,0.23220223,-0.4645713,14.6,1,4750
807,1,399,RGBSYAZ031599,-27.0346,0.143,0.23220223,-0.4645713,14.6,2,5740
513,1,311,RGBSYAZ032094,-27.3931,0.142,0.23206479,-0.4636709,15.2,2,5700
1498,1,311,RGBSYAZ032094,-32.3037,0.186,0.23206479,-0.4636709,15.2,3,6620
64,1,311,RGBSYAZ032094,-28.6927,0.192,0.23206479,-0.4636709,15.2,1,4750
423,,311,RGBSYAZ032094,-30.6486,0.2,0.23206479,-0.4636709,15.2,1,4810
1320,,311,RGBSYAZ032094,-29.0858,0.2,0.23206479,-0.4636709,15.2,3,6600
248,,316,RGBSYAZ032119,-28.847,0.108,0.23234186,-0.4636392,15,1,4790
786,,316,RGBSYAZ032119,-28.1565,0.108,0.23234186,-0.4636392,15,2,5740
517,,316,RGBSYAZ032119,-28.2467,0.118,0.23234186,-0.4636392,15,2,5700
1502,1,316,RGBSYAZ032119,-28.6732,0.122,0.23234186,-0.4636392,15,3,6620
337,,316,RGBSYAZ032119,-29.8304,0.128,0.23234186,-0.4636392,15,1,4800
510,,289,RGBSYAZ032345,-27.6397,0.047,0.23202697,-0.4632141,13.8,2,5700
959,1,289,RGBSYAZ032345,-28.8439,0.063,0.23202697,-0.4632141,13.8,2,5770
330,,289,RGBSYAZ032345,-29.2206,0.069,0.23202697,-0.4632141,13.8,1,4800
1585,,289,RGBSYAZ032345,-30.0328,0.071,0.23202697,-0.4632141,13.8,3,6630
1317,,289,RGBSYAZ032345,-29.1354,0.072,0.23202697,-0.4632141,13.8,3,6600
516,,314,RGBSYAZ032767,-29.7468,0.079,0.23185535,-0.4619494,14.7,2,5700
336,,314,RGBSYAZ032767,-31.7613,0.098,0.23185535,-0.4619494,14.7,1,4800
785,1,314,RGBSYAZ032767,-29.4559,0.103,0.23185535,-0.4619494,14.7,2,5740
247,,314,RGBSYAZ032767,-31.4312,0.105,0.23185535,-0.4619494,14.7,1,4790
965,1,314,RGBSYAZ032767,-30.8047,0.105,0.23185535,-0.4619494,14.7,2,5770
125,1,182,RHBSYAZ002330,22.1603,0.226,0.22937189,-0.4612821,15.3,1,4760
484,,182,RHBSYAZ002330,20.1178,0.24,0.22937189,-0.4612821,15.3,2,5700
1291,1,182,RHBSYAZ002330,26.7433,0.269,0.22937189,-0.4612821,15.3,3,6600
753,1,182,RHBSYAZ002330,21.985,0.287,0.22937189,-0.4612821,15.3,2,5740
35,,182,RHBSYAZ002330,20.5151,0.305,0.22937189,-0.4612821,15.3,1,4750
518,,320,RHBSYAZ002982,17.1057,0.115,0.22930499,-0.4581626,15.2,2,5700
69,1,320,RHBSYAZ002982,18.432,0.142,0.22930499,-0.4581626,15.2,1,4750
787,1,320,RHBSYAZ002982,14.7696,0.178,0.22930499,-0.4581626,15.2,2,5740
159,1,320,RHBSYAZ002982,18.4663,0.2,0.22930499,-0.4581626,15.2,1,4760
338,,320,RHBSYAZ002982,15.1508,0.202,0.22930499,-0.4581626,15.2,1,4800
504,,271,RHBSYAZ003851,63.289,0.066,0.22653428,-0.4604591,15.5,2,5700
953,1,271,RHBSYAZ003851,61.8459,0.08,0.22653428,-0.4604591,15.5,2,5770
1222,1,271,RHBSYAZ003851,62.0099,0.103,0.22653428,-0.4604591,15.5,3,6580
414,1,271,RHBSYAZ003851,61.1081,0.113,0.22653428,-0.4604591,15.5,1,4810
863,,271,RHBSYAZ003851,62.1375,0.113,0.22653428,-0.4604591,15.5,2,5760
775,,274,RHBSYAZ003944,12.3447,0.102,0.22740112,-0.4602352,15.2,2,5740
147,1,274,RHBSYAZ003944,14.5713,0.112,0.22740112,-0.4602352,15.2,1,4760
1224,1,274,RHBSYAZ003944,12.0353,0.114,0.22740112,-0.4602352,15.2,3,6580
57,,274,RHBSYAZ003944,13.895,0.115,0.22740112,-0.4602352,15.2,1,4750
506,,274,RHBSYAZ003944,12.8558,0.117,0.22740112,-0.4602352,15.2,2,5700
751,,176,RHBSYAZ006764,52.2967,0.11,0.22381156,-0.4653298,15.3,2,5740
482,,176,RHBSYAZ006764,51.7046,0.112,0.22381156,-0.4653298,15.3,2,5700
302,,176,RHBSYAZ006764,51.7326,0.118,0.22381156,-0.4653298,15.3,1,4800
392,,176,RHBSYAZ006764,50.9916,0.121,0.22381156,-0.4653298,15.3,1,4810
213,1,176,RHBSYAZ006764,52.5471,0.125,0.22381156,-0.4653298,15.3,1,4790
1183,1,89,RHBSYAZ011595,-31.3828,0.182,0.23112668,-0.4662634,15.3,3,6580
465,1,89,RHBSYAZ011595,-28.617,0.189,0.23112668,-0.4662634,15.3,2,5700
285,1,89,RHBSYAZ011595,-31.0222,0.192,0.23112668,-0.4662634,15.3,1,4800
555,1,89,RHBSYAZ011595,-27.4979,0.22,0.23112668,-0.4662634,15.3,2,5710
375,1,89,RHBSYAZ011595,-29.9812,0.245,0.23112668,-0.4662634,15.3,1,4810
1270,1,87,RHBSYAZ020140,782.9031,0.194,0.23105686,-0.464129,15.1,3,6600
283,,87,RHBSYAZ020140,-27.0449,0.228,0.23105686,-0.464129,15.1,1,4800
732,,87,RHBSYAZ020140,-27.1491,0.262,0.23105686,-0.464129,15.1,2,5740
463,1,87,RHBSYAZ020140,-29.9584,0.265,0.23105686,-0.464129,15.1,2,5700
1181,1,87,RHBSYAZ020140,-27.2627,0.279,0.23105686,-0.464129,15.1,3,6580
551,1,80,RHBSYAZ031292,-52.3138,0.198,0.23268365,-0.4652286,15.1,2,5710
461,1,80,RHBSYAZ031292,567.2249,0.201,0.23268365,-0.4652286,15.1,2,5700
641,1,80,RHBSYAZ031292,26.0039,0.228,0.23268365,-0.4652286,15.1,2,5730
1358,1,80,RHBSYAZ031292,-393.0858,0.295,0.23268365,-0.4652286,15.1,3,6610
371,1,80,RHBSYAZ031292,-469.7163,0.309,0.23268365,-0.4652286,15.1,1,4810
537,,398,RHBSYAZ031888,69.3222,0.175,0.23375121,-0.4640772,15.5,2,5700
986,1,398,RHBSYAZ031888,72.2273,0.234,0.23375121,-0.4640772,15.5,2,5770
627,1,398,RHBSYAZ031888,69.6783,0.281,0.23375121,-0.4640772,15.5,2,5710
447,,398,RHBSYAZ031888,67.836,0.319,0.23375121,-0.4640772,15.5,1,4810
88,1,398,RHBSYAZ031888,68.2774,0.387,0.23375121,-0.4640772,15.5,1,4750