Fib,Name,Mag,y
1,PARKED,0.0,26.9039363861084
2,FIBRE NOT IN U,0.0,35.18566131591797
3,PARKED,0.0,43.467384338378906
4,RGBSYAZ021904,14.0,51.74955368041992
5,PARKED,0.0,59.745147705078125
6,PARKED,0.0,68.03306579589844
7,PARKED,0.0,76.1689453125
8,PARKED,0.0,84.3042984008789
9,PARKED,0.0,92.29471588134766
10,PARKED,0.0,100.5381088256836
11,RGBSYAZ025174,15.4,122.3006362915039
12,PARKED,0.0,130.47691345214844
13,AGBSYAZ024409,14.6,138.84622192382812
14,PARKED,0.0,147.13182067871094
15,PARKED,0.0,155.37533569335938
16,PARKED,0.0,163.74208068847656
17,PARKED,0.0,171.9507598876953
18,PARKED,0.0,180.27377319335938
19,PARKED,0.0,188.63546752929688
20,PARKED,0.0,196.92210388183594
21,PARKED,0.0,216.6521453857422
22,PARKED,0.0,225.05020141601562
23,PARKED,0.0,233.48336791992188
24,PARKED,0.0,241.81900024414062
25,PARKED,0.0,250.2646026611328
26,PARKED,0.0,258.7415771484375
27,PARKED,0.0,267.0028381347656
28,PARKED,0.0,275.51690673828125
29,SKY009,99.9,283.8003234863281
30,PARKED,0.0,292.2351379394531
31,AGBSYAZ030871,14.6,314.82080078125
32,PARKED,0.0,323.307861328125
33,PARKED,0.0,331.9620056152344
34,PARKED,0.0,340.3816833496094
35,PARKED,0.0,348.9881591796875
36,PARKED,0.0,357.47161865234375
37,PARKED,0.0,366.0322265625
38,PARKED,0.0,374.5045471191406
39,PARKED,0.0,382.9990539550781
40,PARKED,0.0,391.5474548339844
41,GUIDE022,12.6,406.29620361328125
42,PARKED,0.0,421.04498291015625
43,PARKED,0.0,429.5560302734375
44,PARKED,0.0,438.0890197753906
45,PARKED,0.0,446.69659423828125
46,PARKED,0.0,455.2579345703125
47,PARKED,0.0,463.89422607421875
48,SKY011,99.9,472.30682373046875
49,PARKED,0.0,480.9833068847656
50,PARKED,0.0,489.5089416503906
51,PARKED,0.0,510.59979248046875
52,RGBSYAZ031345,15.5,519.4620971679688
53,SKY012,99.9,528.16064453125
54,PARKED,0.0,536.7488403320312
55,PARKED,0.0,545.4732055664062
56,PARKED,0.0,554.17578125
57,PARKED,0.0,562.8505249023438
58,PARKED,0.0,571.5771484375
59,BBLUYAZ031174,11.5,580.312744140625
60,PARKED,0.0,589.0342407226562
61,PARKED,0.0,610.7581787109375
62,RGBSYAZ012223,15.2,619.8300170898438
63,BHBSYAZ014452,15.4,628.5692749023438
64,PARKED,0.0,637.3961181640625
65,SKY044,99.9,646.0617065429688
66,PARKED,0.0,654.718505859375
67,PARKED,0.0,663.5115356445312
68,PARKED,0.0,672.227294921875
69,PARKED,0.0,681.0042114257812
70,PARKED,0.0,689.6453857421875
71,BAGBYAZ031029,14.4,711.0219116210938
72,PARKED,0.0,719.82080078125
73,PARKED,0.0,728.8068237304688
74,PARKED,0.0,737.640625
75,PARKED,0.0,746.5276489257812
76,BHBSYAZ022830,15.5,755.5180053710938
77,BBLUYAZ031296,12.6,764.3019409179688
78,PARKED,0.0,773.0211181640625
79,AGBSYAZ016610,14.0,781.777099609375
80,RHBSYAZ031292,15.1,790.6930541992188
81,PARKED,0.0,812.176025390625
82,RGBSYAZ016419,15.5,821.0971069335938
83,PARKED,0.0,830.156982421875
84,PARKED,0.0,839.0482788085938
85,PARKED,0.0,847.8855590820312
86,PARKED,0.0,856.8095703125
87,RHBSYAZ020140,15.1,865.7836303710938
88,RGBSYAZ015342,14.8,874.6565551757812
89,RHBSYAZ011595,15.3,883.5320434570312
90,PARKED,0.0,892.4244995117188
91,FIBRE NOT IN U,0.0,907.89453125
92,PARKED,0.0,923.3646240234375
93,FIBRE NOT IN U,0.0,932.513427734375
94,PARKED,0.0,941.5390014648438
95,AGBSYAZ018498,13.7,950.5281982421875
96,PARKED,0.0,959.6163940429688
97,SKY015,99.9,968.5281982421875
98,FIBRE NOT IN U,0.0,977.586181640625
99,BGBSYAZ012027,13.8,986.6441040039062
100,PARKED,0.0,995.4786376953125
101,PARKED,0.0,1017.8602294921875
102,SKY017,99.9,1026.9063720703125
103,AGBSYAZ020908,14.1,1036.08642578125
104,RGBSYAZ014258,15.4,1045.1563720703125
105,SKY016,99.9,1054.144287109375
106,PARKED,0.0,1063.3121337890625
107,PARKED,0.0,1072.3585205078125
108,PARKED,0.0,1081.19580078125
109,PARKED,0.0,1090.2706298828125
110,FIBRE NOT IN U,0.0,1105.341796875
111,PARKED,0.0,1120.412841796875
112,SKY048,99.9,1129.5296630859375
113,AGBSYAZ017762,14.1,1138.7755126953125
114,PARKED,0.0,1147.784423828125
115,PARKED,0.0,1156.8428955078125
116,FIBRE NOT IN U,0.0,1165.9127197265625
117,FIBRE NOT IN U,0.0,1174.939453125
118,RGBSYAZ013369,14.9,1183.966064453125
119,PARKED,0.0,1192.99658203125
120,RGBSYAZ017798,15.3,1202.1317138671875
121,PARKED,0.0,1223.8704833984375
122,PARKED,0.0,1232.9931640625
123,PARKED,0.0,1242.27880859375
124,PARKED,0.0,1251.386962890625
125,PARKED,0.0,1260.490478515625
126,PARKED,0.0,1269.695556640625
127,PARKED,0.0,1278.635498046875
128,SKY018,99.9,1287.8709716796875
129,PARKED,0.0,1297.115234375
130,BHBSYAZ015315,15.4,1306.1434326171875
131,PARKED,0.0,1329.1080322265625
132,PARKED,0.0,1338.24853515625
133,PARKED,0.0,1347.535888671875
134,PARKED,0.0,1356.5391845703125
135,BAGBYAZ014218,14.6,1365.847900390625
136,PARKED,0.0,1375.0450439453125
137,PARKED,0.0,1384.1759033203125
138,BAGBYAZ014802,14.5,1393.1202392578125
139,SKY019,99.9,1402.451416015625
140,PARKED,0.0,1411.5894775390625
141,GUIDE018,12.6,1427.0869140625
142,PARKED,0.0,1442.5843505859375
143,FIBRE NOT IN U,0.0,1451.85009765625
144,PARKED,0.0,1461.115966796875
145,PARKED,0.0,1470.2152099609375
146,PARKED,0.0,1479.3651123046875
147,PARKED,0.0,1488.55126953125
148,SKY020,99.9,1497.7576904296875
149,PARKED,0.0,1507.0084228515625
150,PARKED,0.0,1516.1253662109375
151,SKY021,99.9,1538.7420654296875
152,BHBSYAZ017699,15.3,1548.199462890625
153,PARKED,0.0,1557.370361328125
154,PARKED,0.0,1566.639892578125
155,PARKED,0.0,1575.7469482421875
156,PARKED,0.0,1585.1065673828125
157,PARKED,0.0,1594.13623046875
158,PARKED,0.0,1603.41259765625
159,PARKED,0.0,1612.646240234375
160,PARKED,0.0,1621.8665771484375
161,SKY022,99.9,1643.4195556640625
162,PARKED,0.0,1652.6175537109375
163,PARKED,0.0,1661.9388427734375
164,PARKED,0.0,1671.1500244140625
165,RGBSYAZ007869,15.0,1680.6446533203125
166,PARKED,0.0,1689.5941162109375
167,RGBSYAZ015658,14.8,1698.8367919921875
168,BHBSYAZ017595,15.5,1708.0833740234375
169,PARKED,0.0,1717.2625732421875
170,PARKED,0.0,1726.4871826171875
171,RGBSYAZ023021,15.1,1749.0523681640625
172,PARKED,0.0,1758.4034423828125
173,BHBSYAZ019581,15.5,1767.751953125
174,PARKED,0.0,1777.0955810546875
175,PARKED,0.0,1786.452880859375
176,RHBSYAZ006764,15.3,1795.5728759765625
177,RGBSYAZ007999,15.4,1804.8629150390625
178,PARKED,0.0,1814.1646728515625
179,PARKED,0.0,1823.4224853515625
180,PARKED,0.0,1832.7274169921875
181,PARKED,0.0,1854.92578125
182,RHBSYAZ002330,15.3,1864.404052734375
183,PARKED,0.0,1873.614990234375
184,SKY023,99.9,1882.9915771484375
185,PARKED,0.0,1892.1746826171875
186,PARKED,0.0,1901.50390625
187,PARKED,0.0,1910.902099609375
188,FIBRE NOT IN U,0.0,1920.1396484375
189,FIBRE NOT IN U,0.0,1929.3773193359375
190,FIBRE NOT IN U,0.0,1938.79541015625
191,GUIDE026,12.7,1954.074951171875
192,PARKED,0.0,1969.3546142578125
193,PARKED,0.0,1978.755126953125
194,PARKED,0.0,1988.02685546875
195,PARKED,0.0,1997.451904296875
196,SKY024,99.9,2006.7679443359375
197,PARKED,0.0,2016.037353515625
198,BBLUYAZ008876,12.4,2025.468017578125
199,PARKED,0.0,2034.6109619140625
200,BBLUYAZ006797,13.3,2044.010986328125
201,PARKED,0.0,2066.1181640625
202,BAGBYAZ009411,14.8,2075.58056640625
203,PARKED,0.0,2084.74658203125
204,PARKED,0.0,2094.187255859375
205,PARKED,0.0,2103.42138671875
206,PARKED,0.0,2112.79248046875
207,PARKED,0.0,2121.975830078125
208,BHBSYAZ023018,15.4,2131.27392578125
209,PARKED,0.0,2140.600830078125
210,AGBSYAZ020268,14.1,2150.044921875
211,PARKED,0.0,2172.025146484375
212,PARKED,0.0,2181.442138671875
213,PARKED,0.0,2190.758056640625
214,RGBSYAZ028562,14.4,2200.045654296875
215,PARKED,0.0,2209.29052734375
216,PARKED,0.0,2218.514404296875
217,BAGBYAZ007913,14.7,2227.797607421875
218,RGBSYAZ009088,15.4,2237.218994140625
219,PARKED,0.0,2246.3603515625
220,PARKED,0.0,2255.66357421875
221,AGBSYAZ005536,14.1,2277.601806640625
222,SKY026,99.9,2286.95556640625
223,BAGBYAZ027546,14.2,2296.136962890625
224,BBLUYAZ009677,13.6,2305.523193359375
225,AGBSYAZ024529,14.3,2314.729736328125
226,BGBSYAZ009280,13.4,2324.043212890625
227,PARKED,0.0,2333.1884765625
228,PARKED,0.0,2342.4697265625
229,SKY054,99.9,2351.74609375
230,PARKED,0.0,2361.10009765625
231,PARKED,0.0,2384.65771484375
232,PARKED,0.0,2393.891357421875
233,PARKED,0.0,2403.18603515625
234,PARKED,0.0,2412.42041015625
235,PARKED,0.0,2421.531494140625
236,PARKED,0.0,2430.85009765625
237,BBLUYAZ009540,11.5,2439.9248046875
238,PARKED,0.0,2449.253662109375
239,PARKED,0.0,2458.41357421875
240,SKY055,99.9,2467.638671875
241,GUIDE010,12.4,2483.0947265625
242,PARKED,0.0,2498.551025390625
243,PARKED,0.0,2507.809814453125
244,PARKED,0.0,2516.957275390625
245,BBLUYAZ003748,12.5,2526.258056640625
246,SKY056,99.9,2535.482421875
247,PARKED,0.0,2544.689453125
248,PARKED,0.0,2553.923583984375
249,AGBSYAZ024850,13.9,2563.046630859375
250,PARKED,0.0,2572.36083984375
251,PARKED,0.0,2596.11669921875
252,BAGBYAZ005721,14.2,2605.35791015625
253,PARKED,0.0,2614.697265625
254,PARKED,0.0,2623.976318359375
255,PARKED,0.0,2633.25732421875
256,PARKED,0.0,2642.358154296875
257,SKY028,99.9,2651.5986328125
258,PARKED,0.0,2660.71875
259,SKY027,99.9,2669.900634765625
260,PARKED,0.0,2679.267822265625
261,PARKED,0.0,2700.315673828125
262,BBLUYAZ002445,13.1,2709.50927734375
263,RGBSYAZ005719,15.5,2718.778076171875
264,PARKED,0.0,2727.9931640625
265,PARKED,0.0,2737.1875
266,PARKED,0.0,2746.45458984375
267,SKY029,99.9,2755.6953125
268,PARKED,0.0,2764.634033203125
269,PARKED,0.0,2773.9755859375
270,PARKED,0.0,2783.25439453125
271,RHBSYAZ003851,15.5,2805.64306640625
272,RGBSYAZ003702,15.0,2814.905029296875
273,PARKED,0.0,2824.086181640625
274,RHBSYAZ003944,15.2,2833.21875
275,BAGBYAZ004812,14.6,2842.315185546875
276,SKY030,99.9,2851.4677734375
277,PARKED,0.0,2860.733154296875
278,PARKED,0.0,2869.927734375
279,FIBRE NOT IN U,0.0,2879.010986328125
280,PARKED,0.0,2888.09423828125
281,PARKED,0.0,2909.81689453125
282,PARKED,0.0,2918.889892578125
283,BBLUYAZ002999,11.9,2927.975830078125
284,FIBRE NOT IN U,0.0,2937.047607421875
285,PARKED,0.0,2946.119384765625
286,PARKED,0.0,2955.096923828125
287,PARKED,0.0,2964.3818359375
288,RGBSYAZ030421,15.1,2973.2802734375
289,RGBSYAZ032345,13.8,2982.2978515625
290,PARKED,0.0,2991.46923828125
291,PARKED,0.0,3013.384521484375
292,PARKED,0.0,3022.521728515625
293,PARKED,0.0,3031.664794921875
294,GUIDE025,12.7,3040.67822265625
295,PARKED,0.0,3049.691650390625
296,PARKED,0.0,3058.875244140625
297,PARKED,0.0,3067.768798828125
298,PARKED,0.0,3076.88671875
299,PARKED,0.0,3085.971435546875
300,PARKED,0.0,3094.963134765625
301,RGBSYAZ027701,15.2,3118.047119140625
302,PARKED,0.0,3126.944091796875
303,PARKED,0.0,3135.940185546875
304,PARKED,0.0,3145.011962890625
305,PARKED,0.0,3153.944091796875
306,PARKED,0.0,3162.779296875
307,FIBRE NOT IN U,0.0,3171.7626953125
308,PARKED,0.0,3180.745849609375
309,BAGBYAZ003778,14.7,3189.687255859375
310,PARKED,0.0,3198.71142578125
311,RGBSYAZ032094,15.2,3221.3310546875
312,BBLUYAZ002217,12.8,3230.3828125
313,AGBSYAZ029428,14.5,3239.1416015625
314,RGBSYAZ032767,14.7,3248.054931640625
315,PARKED,0.0,3256.879638671875
316,RGBSYAZ032119,15.0,3265.675537109375
317,PARKED,0.0,3274.728759765625
318,PARKED,0.0,3283.47802734375
319,PARKED,0.0,3292.392578125
320,RHBSYAZ002982,15.2,3301.177001953125
321,FIBRE NOT IN U,0.0,3323.304443359375
322,PARKED,0.0,3332.326416015625
323,RGBSYAZ028604,15.0,3341.116943359375
324,BBLUYAZ009728,13.4,3349.901611328125
325,PARKED,0.0,3358.7548828125
326,PARKED,0.0,3367.560546875
327,RGBSYAZ026969,15.4,3376.358154296875
328,BAGBYAZ002679,14.3,3385.282958984375
329,PARKED,0.0,3394.1455078125
330,BHBSYAZ026863,15.4,3402.940673828125
331,FIBRE NOT IN U,0.0,3417.61669921875
332,PARKED,0.0,3432.29248046875
333,PARKED,0.0,3441.09033203125
334,PARKED,0.0,3450.009765625
335,RGBSYAZ025607,15.4,3458.5771484375
336,PARKED,0.0,3467.393310546875
337,PARKED,0.0,3476.228759765625
338,AGBSYAZ025094,14.3,3484.818115234375
339,AGBSYAZ028230,14.5,3493.73828125
340,PARKED,0.0,3502.527587890625
341,GUIDE008,12.3,3515.772216796875
342,FIBRE NOT IN U,0.0,3529.01708984375
343,PARKED,0.0,3542.26171875
344,PARKED,0.0,3551.1064453125
345,BBLUYAZ032280,10.2,3559.569091796875
346,PARKED,0.0,3568.40283203125
347,RGBSYAZ021600,13.8,3577.037109375
348,PARKED,0.0,3585.886474609375
349,BBLUYAZ032000,12.3,3594.505615234375
350,PARKED,0.0,3603.3623046875
351,PARKED,0.0,3626.240966796875
352,PARKED,0.0,3634.78662109375
353,PARKED,0.0,3643.46435546875
354,PARKED,0.0,3652.074951171875
355,PARKED,0.0,3660.59033203125
356,PARKED,0.0,3669.233642578125
357,SKY005,99.9,3677.654296875
358,PARKED,0.0,3686.427490234375
359,PARKED,0.0,3694.919189453125
360,PARKED,0.0,3703.537841796875
361,PARKED,0.0,3724.162353515625
362,SKY037,99.9,3732.578125
363,PARKED,0.0,3741.0458984375
364,PARKED,0.0,3749.682373046875
365,PARKED,0.0,3758.18701171875
366,PARKED,0.0,3766.678955078125
367,PARKED,0.0,3775.163330078125
368,PARKED,0.0,3783.72216796875
369,PARKED,0.0,3792.3671875
370,PARKED,0.0,3800.94287109375
371,FIBRE NOT IN U,0.0,3815.904296875
372,BBLUYAZ031429,12.6,3830.865966796875
373,PARKED,0.0,3839.32080078125
374,PARKED,0.0,3847.646240234375
375,PARKED,0.0,3856.064453125
376,PARKED,0.0,3864.448974609375
377,PARKED,0.0,3872.92333984375
378,PARKED,0.0,3881.2392578125
379,FIBRE NOT IN U,0.0,3889.630859375
380,PARKED,0.0,3898.022216796875
381,BGBSYAZ018774,12.9,3920.07958984375
382,PARKED,0.0,3928.431396484375
383,BBLUYAZ032440,13.4,3936.85107421875
384,PARKED,0.0,3945.115478515625
385,PARKED,0.0,3953.397216796875
386,PARKED,0.0,3961.777587890625
387,PARKED,0.0,3970.048828125
388,PARKED,0.0,3978.3662109375
389,PARKED,0.0,3986.733642578125
390,PARKED,0.0,3995.010009765625
391,PARKED,0.0,4010.5546875
392,PARKED,0.0,4026.09912109375
393,AGBSYAZ032013,13.8,4034.130615234375
394,BAGBYAZ031344,14.2,4042.43115234375
395,RGBSYAZ017382,13.9,4050.6796875
396,BBLUYAZ032687,12.8,4058.677734375
397,PARKED,0.0,4066.927734375
398,RHBSYAZ031888,15.5,4075.05908203125
399,RGBSYAZ031599,14.6,4083.3310546875
400,PARKED,0.0,4091.76123046875
