CCD,Glow-free signal-to-noise n1 mean,Glow-free signal-to-noise n1 sem,Normal signal-to-noise n2 mean,Normal signal-to-noise n2 sem
1,40.836,2.3514190514571314,42.211,2.1206091630053434
2,72.21000000000001,5.102456489008232,77.714,6.284165674313673
3,91.16400000000002,7.5424782546734725,119.26000000000002,14.256030926515898
